[
  "10001349X",
  "10003876X",
  "10004638X",
  "100092705",
  "100098657",
  "10011637X",
  "100126863",
  "100134971",
  "100135870",
  "100173217",
  "10019561X",
  "100220738",
  "100222838",
  "100325947",
  "100330355",
  "100340520",
  "100353231",
  "100366163",
  "100408818",
  "100583172",
  "100697755",
  "100805949",
  "100868304",
  "10086984X",
  "100871658",
  "100877389",
  "100883311",
  "100975321",
  "101009739",
  "1013432223",
  "1014634059",
  "1016582021",
  "103084010",
  "1036931838",
  "1038456835",
  "104057777",
  "104075481",
  "104088060",
  "104103930",
  "104114010",
  "104136081",
  "104158999",
  "104160055",
  "10420883X",
  "104219440",
  "10422486X",
  "104254858",
  "104314206",
  "1053439598",
  "1055356894",
  "115548459",
  "115579117",
  "115599517",
  "115661484",
  "115750789",
  "115812539",
  "115823387",
  "116040149",
  "116061375",
  "116211148",
  "116211431",
  "116221534",
  "116240210",
  "116278986",
  "116292369",
  "116322675",
  "116354313",
  "116399406",
  "116449454",
  "116479914",
  "116552417",
  "116572302",
  "116623284",
  "116785993",
  "11684034X",
  "116887206",
  "116895284",
  "116926635",
  "116935715",
  "116951753",
  "116988703",
  "116990325",
  "117014931",
  "117016268",
  "117016683",
  "117052124",
  "117113980",
  "117114308",
  "117140791",
  "117218545",
  "117232998",
  "117233102",
  "11723379X",
  "117244724",
  "117281867",
  "117348120",
  "117377201",
  "117444154",
  "117450588",
  "117478113",
  "117486701",
  "117524425",
  "117531332",
  "117574309",
  "117648272",
  "117674257",
  "118177907",
  "118507605",
  "118508024",
  "118512617",
  "11851685X",
  "118534432",
  "118534688",
  "118569376",
  "118580051",
  "118599224",
  "118608045",
  "11861276X",
  "118617109",
  "11862220X",
  "118623621",
  "118634771",
  "118653938",
  "118684426",
  "118687468",
  "11871158X",
  "118718835",
  "118752243",
  "118752561",
  "118756095",
  "118756109",
  "118764470",
  "118767372",
  "118775782",
  "118786199",
  "118825372",
  "118826565",
  "118931911",
  "118944878",
  "119008017",
  "119091852",
  "119301008",
  "119413280",
  "11952452X",
  "120033232",
  "120076276",
  "12043153X",
  "120435756",
  "121523012",
  "121948781",
  "122109058",
  "122823575",
  "123165350",
  "123414709",
  "123549744",
  "123562511",
  "124021085",
  "124202047",
  "124518346",
  "124762905",
  "124946569",
  "126587140",
  "128472723",
  "128976640",
  "129070092",
  "130047384",
  "130134686",
  "132881144",
  "133436454",
  "133487156",
  "136119417",
  "136467989",
  "137377460",
  "137726775",
  "138519285",
  "141780061",
  "141878886",
  "143695991",
  "104171421",
  "1020385375",
  "1042343306"
]